DLP/Atividade 2 - Henrique Silva Coutinho/Testes/ATV2/simulation/qsim/ATVHenrique.msim.vcd
$comment
	File created using the following command:
		vcd file ATVHenrique.msim.vcd -direction
$end
$date
	Thu Dec 16 20:00:16 2021
$end
$version
	ModelSim Version 10.5b
$end
$timescale
	1ps
$end

$scope module ATVHenrique_vlg_vec_tst $end
$var reg 4 ! A [3:0] $end
$var reg 4 " B [3:0] $end
$var reg 4 # C [3:0] $end
$var reg 4 $ D [3:0] $end
$var reg 1 % clock $end
$var reg 1 & clr $end
$var reg 1 ' ld_A $end
$var reg 1 ( ld_B $end
$var reg 1 ) ld_C $end
$var reg 1 * ld_D $end
$var reg 1 + transmit $end
$var wire 1 , S $end

$scope module i1 $end
$var wire 1 - gnd $end
$var wire 1 . vcc $end
$var wire 1 / unknown $end
$var tri1 1 0 devclrn $end
$var tri1 1 1 devpor $end
$var tri1 1 2 devoe $end
$var wire 1 3 B[0]~input_o $end
$var wire 1 4 B[1]~input_o $end
$var wire 1 5 B[2]~input_o $end
$var wire 1 6 B[3]~input_o $end
$var wire 1 7 C[0]~input_o $end
$var wire 1 8 C[1]~input_o $end
$var wire 1 9 C[2]~input_o $end
$var wire 1 : C[3]~input_o $end
$var wire 1 ; D[0]~input_o $end
$var wire 1 < D[1]~input_o $end
$var wire 1 = D[2]~input_o $end
$var wire 1 > D[3]~input_o $end
$var wire 1 ? ld_B~input_o $end
$var wire 1 @ ld_C~input_o $end
$var wire 1 A ld_D~input_o $end
$var wire 1 B S~output_o $end
$var wire 1 C clock~input_o $end
$var wire 1 D A[0]~input_o $end
$var wire 1 E A[1]~input_o $end
$var wire 1 F A[2]~input_o $end
$var wire 1 G A[3]~input_o $end
$var wire 1 H ld_A~input_o $end
$var wire 1 I regA|Aux~4_combout $end
$var wire 1 J transmit~input_o $end
$var wire 1 K clr~input_o $end
$var wire 1 L FF1|FF1~q $end
$var wire 1 M regA|Aux[0]~1_combout $end
$var wire 1 N regA|Aux~3_combout $end
$var wire 1 O regA|Aux~2_combout $end
$var wire 1 P regA|Aux~0_combout $end
$var wire 1 Q regA|Out~0_combout $end
$var wire 1 R regA|Out~q $end
$var wire 1 S regA|Aux [3] $end
$var wire 1 T regA|Aux [2] $end
$var wire 1 U regA|Aux [1] $end
$var wire 1 V regA|Aux [0] $end
$upscope $end
$upscope $end
$enddefinitions $end
#0
$dumpvars
b1 !
bx "
bx #
bx $
0%
1&
0'
x(
x)
x*
0+
0,
0-
1.
x/
10
11
12
x3
x4
x5
x6
x7
x8
x9
x:
x;
x<
x=
x>
x?
x@
xA
0B
0C
1D
0E
0F
0G
0H
0I
0J
1K
0L
0M
0N
0O
0P
0Q
0R
0V
0U
0T
0S
$end
#10000
1%
1C
#20000
0%
0C
#30000
1%
1C
#40000
1'
0%
1H
0C
1M
1P
#50000
1%
1C
1V
#60000
0%
0C
#70000
1%
1C
#80000
0%
0C
#90000
0'
1%
0H
1C
0M
0P
1I
#100000
0%
0C
#110000
1+
1%
1J
1C
1L
1M
1Q
#120000
0%
0C
#130000
0+
1%
0J
1C
0V
1S
1R
1B
1,
0Q
0I
1N
#140000
0%
0C
#150000
1%
1C
1T
0S
0R
0B
0,
1O
0N
#160000
0%
0C
#170000
1%
1C
1U
0T
1P
0O
#180000
0%
0C
#190000
1%
1C
1V
0U
1Q
1I
0P
#200000
0%
0C
#210000
1%
1C
0V
1S
1R
1B
1,
0Q
0I
1N
#220000
0%
0C
#230000
1%
1C
1T
0S
0R
0B
0,
1O
0N
#240000
0%
0C
#250000
1%
1C
1U
0T
1P
0O
#260000
0%
0C
#270000
1%
1C
1V
0U
1Q
1I
0P
#280000
0%
0C
#290000
1%
1C
0V
1S
1R
1B
1,
0Q
0I
1N
#300000
0%
0C
#310000
1%
1C
1T
0S
0R
0B
0,
1O
0N
#320000
0%
0C
#330000
1%
1C
1U
0T
1P
0O
#340000
0%
0C
#350000
1%
1C
1V
0U
1Q
1I
0P
#360000
0%
0C
#370000
1%
1C
0V
1S
1R
1B
1,
0Q
0I
1N
#380000
0%
0C
#390000
1%
1C
1T
0S
0R
0B
0,
1O
0N
#400000
0%
0C
#410000
1%
1C
1U
0T
1P
0O
#420000
0%
0C
#430000
1%
1C
1V
0U
1Q
1I
0P
#440000
0%
0C
#450000
1%
1C
0V
1S
1R
1B
1,
0Q
0I
1N
#460000
0%
0C
#470000
1%
1C
1T
0S
0R
0B
0,
1O
0N
#480000
0%
0C
#490000
1%
1C
1U
0T
1P
0O
#500000
0%
0C
#510000
1%
1C
1V
0U
1Q
1I
0P
#520000
0%
0C
#530000
1%
1C
0V
1S
1R
1B
1,
0Q
0I
1N
#540000
0%
0C
#550000
1%
1C
1T
0S
0R
0B
0,
1O
0N
#560000
0%
0C
#570000
1%
1C
1U
0T
1P
0O
#580000
0%
0C
#590000
1%
1C
1V
0U
1Q
1I
0P
#600000
0%
0C
#610000
1%
1C
0V
1S
1R
1B
1,
0Q
0I
1N
#620000
0%
0C
#630000
1%
1C
1T
0S
0R
0B
0,
1O
0N
#640000
0%
0C
#650000
1%
1C
1U
0T
1P
0O
#660000
0%
0C
#670000
1%
1C
1V
0U
1Q
1I
0P
#680000
0%
0C
#690000
1%
1C
0V
1S
1R
1B
1,
0Q
0I
1N
#700000
0%
0C
#710000
1%
1C
1T
0S
0R
0B
0,
1O
0N
#720000
0%
0C
#730000
1%
1C
1U
0T
1P
0O
#740000
0%
0C
#750000
1%
1C
1V
0U
1Q
1I
0P
#760000
0%
0C
#770000
1%
1C
0V
1S
1R
1B
1,
0Q
0I
1N
#780000
0%
0C
#790000
1%
1C
1T
0S
0R
0B
0,
1O
0N
#800000
0%
0C
#810000
1%
1C
1U
0T
1P
0O
#820000
0%
0C
#830000
1%
1C
1V
0U
1Q
1I
0P
#840000
0%
0C
#850000
1%
1C
0V
1S
1R
1B
1,
0Q
0I
1N
#860000
0%
0C
#870000
1%
1C
1T
0S
0R
0B
0,
1O
0N
#880000
0%
0C
#890000
1%
1C
1U
0T
1P
0O
#900000
0%
0C
#910000
1%
1C
1V
0U
1Q
1I
0P
#920000
0%
0C
#930000
1%
1C
0V
1S
1R
1B
1,
0Q
0I
1N
#940000
0%
0C
#950000
1%
1C
1T
0S
0R
0B
0,
1O
0N
#960000
0%
0C
#970000
1%
1C
1U
0T
1P
0O
#980000
0%
0C
#990000
1%
1C
1V
0U
1Q
1I
0P
