DLP/Atividade 2 - Henrique Silva Coutinho/ATV2-Henrique/RX/simulation/qsim/RX.msim.vcd
$comment
	File created using the following command:
		vcd file RX.msim.vcd -direction
$end
$date
	Fri Dec 17 14:21:48 2021
$end
$version
	ModelSim Version 10.5b
$end
$timescale
	1ps
$end

$scope module RX_vlg_vec_tst $end
$var reg 1 ! clk $end
$var reg 1 " transmit $end
$var reg 1 # transmit_data $end
$var wire 1 $ received $end
$var wire 1 % recevA [3] $end
$var wire 1 & recevA [2] $end
$var wire 1 ' recevA [1] $end
$var wire 1 ( recevA [0] $end
$var wire 1 ) recevB [3] $end
$var wire 1 * recevB [2] $end
$var wire 1 + recevB [1] $end
$var wire 1 , recevB [0] $end
$var wire 1 - recevC [3] $end
$var wire 1 . recevC [2] $end
$var wire 1 / recevC [1] $end
$var wire 1 0 recevC [0] $end
$var wire 1 1 recevD [3] $end
$var wire 1 2 recevD [2] $end
$var wire 1 3 recevD [1] $end
$var wire 1 4 recevD [0] $end

$scope module i1 $end
$var wire 1 5 gnd $end
$var wire 1 6 vcc $end
$var wire 1 7 unknown $end
$var tri1 1 8 devclrn $end
$var tri1 1 9 devpor $end
$var tri1 1 : devoe $end
$var wire 1 ; recevA[0]~output_o $end
$var wire 1 < recevA[1]~output_o $end
$var wire 1 = recevA[2]~output_o $end
$var wire 1 > recevA[3]~output_o $end
$var wire 1 ? recevB[0]~output_o $end
$var wire 1 @ recevB[1]~output_o $end
$var wire 1 A recevB[2]~output_o $end
$var wire 1 B recevB[3]~output_o $end
$var wire 1 C recevC[0]~output_o $end
$var wire 1 D recevC[1]~output_o $end
$var wire 1 E recevC[2]~output_o $end
$var wire 1 F recevC[3]~output_o $end
$var wire 1 G recevD[0]~output_o $end
$var wire 1 H recevD[1]~output_o $end
$var wire 1 I recevD[2]~output_o $end
$var wire 1 J recevD[3]~output_o $end
$var wire 1 K received~output_o $end
$var wire 1 L clk~input_o $end
$var wire 1 M transmit_data~input_o $end
$var wire 1 N transmit~input_o $end
$var wire 1 O wordcontador|Q~2_combout $end
$var wire 1 P bitcontador|Q~0_combout $end
$var wire 1 Q bitcontador|Q~1_combout $end
$var wire 1 R wordcontador|Q[0]~1_combout $end
$var wire 1 S wordcontador|Q~0_combout $end
$var wire 1 T FFJK2|Qp~0_combout $end
$var wire 1 U FFJK2|Qp~1_combout $end
$var wire 1 V FFJK2|Qp~q $end
$var wire 1 W FFD1|Q~q $end
$var wire 1 X comb~0_combout $end
$var wire 1 Y comb~1_combout $end
$var wire 1 Z comb~2_combout $end
$var wire 1 [ comb~3_combout $end
$var wire 1 \ regA|Out [3] $end
$var wire 1 ] regA|Out [2] $end
$var wire 1 ^ regA|Out [1] $end
$var wire 1 _ regA|Out [0] $end
$var wire 1 ` regB|Out [3] $end
$var wire 1 a regB|Out [2] $end
$var wire 1 b regB|Out [1] $end
$var wire 1 c regB|Out [0] $end
$var wire 1 d wordcontador|Q [1] $end
$var wire 1 e wordcontador|Q [0] $end
$var wire 1 f regC|Out [3] $end
$var wire 1 g regC|Out [2] $end
$var wire 1 h regC|Out [1] $end
$var wire 1 i regC|Out [0] $end
$var wire 1 j regD|Out [3] $end
$var wire 1 k regD|Out [2] $end
$var wire 1 l regD|Out [1] $end
$var wire 1 m regD|Out [0] $end
$var wire 1 n bitcontador|Q [1] $end
$var wire 1 o bitcontador|Q [0] $end
$upscope $end
$upscope $end
$enddefinitions $end
#0
$dumpvars
0!
0"
0#
0$
0(
0'
0&
0%
0,
0+
0*
0)
00
0/
0.
0-
04
03
02
01
05
16
x7
18
19
1:
0;
0<
0=
0>
0?
0@
0A
0B
0C
0D
0E
0F
0G
0H
0I
0J
0K
0L
0M
0N
0O
0P
0Q
1R
0S
1T
1U
0V
0W
0X
0Y
0Z
0[
0_
0^
0]
0\
0c
0b
0a
0`
0e
0d
0i
0h
0g
0f
0m
0l
0k
0j
0o
0n
$end
#5000
1!
1L
1V
1K
0R
1$
1O
#10000
0!
0L
#15000
1!
1L
#20000
1#
0!
1M
0L
#25000
1!
1L
#30000
0!
0L
#35000
1!
1L
#40000
0#
0!
0M
0L
#45000
1!
1L
#50000
0!
0L
#55000
1!
1L
#60000
1"
0!
1N
0L
1W
1X
1P
#65000
1!
1L
1o
1Q
0P
#70000
0!
0L
#75000
1!
1L
1n
0o
1P
#80000
1#
0!
1M
0L
#85000
1!
1L
1o
1\
1>
1R
1%
0Q
0P
#90000
0!
0L
#95000
1!
1L
1e
0n
0o
1]
1=
1Y
0X
0R
1&
1S
0O
1P
#100000
0"
0#
0!
0N
0M
0L
#105000
1!
1L
1o
1Q
0P
#110000
0!
0L
#115000
1!
1L
1n
0o
1P
#120000
1#
0!
1M
0L
#125000
1!
1L
1o
1`
1B
1R
1)
0Q
0P
#130000
0!
0L
#135000
1!
1L
1d
0e
0n
0o
1a
1A
1Z
0Y
0R
1*
1O
1P
#140000
0!
0L
#145000
1!
1L
1o
1f
1F
1-
1Q
0P
#150000
0!
0L
#155000
1!
1L
1n
0o
1g
1E
1.
1P
#160000
0#
0!
0M
0L
#165000
1!
1L
1o
1h
0f
0F
1D
1R
1/
0-
0Q
0P
#170000
0!
0L
#175000
1!
1L
1e
0n
0o
1i
0g
0E
1C
1[
0Z
0R
10
0.
0S
0O
1P
#180000
0!
0L
#185000
1!
1L
1o
1Q
0P
#190000
0!
0L
#195000
1!
1L
1n
0o
1P
#200000
1#
0!
1M
0L
#205000
1!
1L
1o
1j
1J
0T
1R
11
0Q
0P
0U
#210000
0!
0L
#215000
1!
1L
0d
0e
0n
0o
1k
0V
0K
1I
0[
1X
1T
12
0$
1U
0W
0X
#220000
0!
0L
#225000
1!
1L
1V
1K
0R
1$
1O
#230000
0!
0L
#235000
1!
1L
#240000
0!
0L
#245000
1!
1L
#250000
0!
0L
#255000
1!
1L
#260000
0!
0L
#265000
1!
1L
#270000
0!
0L
#275000
1!
1L
#280000
0!
0L
#285000
1!
1L
#290000
0!
0L
#295000
1!
1L
#300000
0!
0L
#305000
1!
1L
#310000
0!
0L
#315000
1!
1L
#320000
0!
0L
#325000
1!
1L
#330000
0!
0L
#335000
1!
1L
#340000
0!
0L
#345000
1!
1L
#350000
0!
0L
#355000
1!
1L
#360000
0#
0!
0M
0L
#365000
1!
1L
#370000
0!
0L
#375000
1!
1L
#380000
1#
0!
1M
0L
#385000
1!
1L
#390000
0!
0L
#395000
1!
1L
#400000
0!
0L
#405000
1!
1L
#410000
0!
0L
#415000
1!
1L
#420000
0#
0!
0M
0L
#425000
1!
1L
#430000
0!
0L
#435000
1!
1L
#440000
1#
0!
1M
0L
#445000
1!
1L
#450000
0!
0L
#455000
1!
1L
#460000
0!
0L
#465000
1!
1L
#470000
0!
0L
#475000
1!
1L
#480000
0#
0!
0M
0L
#485000
1!
1L
#490000
0!
0L
#495000
1!
1L
#500000
0!
0L
#505000
1!
1L
#510000
0!
0L
#515000
1!
1L
#520000
0!
0L
#525000
1!
1L
#530000
0!
0L
#535000
1!
1L
#540000
1#
0!
1M
0L
#545000
1!
1L
#550000
0!
0L
#555000
1!
1L
#560000
0#
0!
0M
0L
#565000
1!
1L
#570000
0!
0L
#575000
1!
1L
#580000
0!
0L
#585000
1!
1L
#590000
0!
0L
#595000
1!
1L
#600000
1#
0!
1M
0L
#605000
1!
1L
#610000
0!
0L
#615000
1!
1L
#620000
0#
0!
0M
0L
#625000
1!
1L
#630000
0!
0L
#635000
1!
1L
#640000
0!
0L
#645000
1!
1L
#650000
0!
0L
#655000
1!
1L
#660000
0!
0L
#665000
1!
1L
#670000
0!
0L
#675000
1!
1L
#680000
1#
0!
1M
0L
#685000
1!
1L
#690000
0!
0L
#695000
1!
1L
#700000
0!
0L
#705000
1!
1L
#710000
0!
0L
#715000
1!
1L
#720000
0#
0!
0M
0L
#725000
1!
1L
#730000
0!
0L
#735000
1!
1L
#740000
0!
0L
#745000
1!
1L
#750000
0!
0L
#755000
1!
1L
#760000
1#
0!
1M
0L
#765000
1!
1L
#770000
0!
0L
#775000
1!
1L
#780000
0!
0L
#785000
1!
1L
#790000
0!
0L
#795000
1!
1L
#800000
0!
0L
#805000
1!
1L
#810000
0!
0L
#815000
1!
1L
#820000
0!
0L
#825000
1!
1L
#830000
0!
0L
#835000
1!
1L
#840000
0!
0L
#845000
1!
1L
#850000
0!
0L
#855000
1!
1L
#860000
0!
0L
#865000
1!
1L
#870000
0!
0L
#875000
1!
1L
#880000
0!
0L
#885000
1!
1L
#890000
0!
0L
#895000
1!
1L
#900000
0#
0!
0M
0L
#905000
1!
1L
#910000
0!
0L
#915000
1!
1L
#920000
1#
0!
1M
0L
#925000
1!
1L
#930000
0!
0L
#935000
1!
1L
#940000
0!
0L
#945000
1!
1L
#950000
0!
0L
#955000
1!
1L
#960000
0!
0L
#965000
1!
1L
#970000
0!
0L
#975000
1!
1L
#980000
0!
0L
#985000
1!
1L
#990000
0!
0L
#995000
1!
1L
