DLP/Atividade 2 - Henrique Silva Coutinho/Testes/contador/simulation/qsim/contador.msim.vcd
$comment
	File created using the following command:
		vcd file contador.msim.vcd -direction
$end
$date
	Fri Dec 17 11:01:22 2021
$end
$version
	ModelSim Version 10.5b
$end
$timescale
	1ps
$end

$scope module contador_vlg_vec_tst $end
$var reg 1 ! clk $end
$var reg 1 " clr_n $end
$var reg 1 # en $end
$var wire 1 $ Q [1] $end
$var wire 1 % Q [0] $end

$scope module i1 $end
$var wire 1 & gnd $end
$var wire 1 ' vcc $end
$var wire 1 ( unknown $end
$var tri1 1 ) devclrn $end
$var tri1 1 * devpor $end
$var tri1 1 + devoe $end
$var wire 1 , Q[0]~output_o $end
$var wire 1 - Q[1]~output_o $end
$var wire 1 . clk~input_o $end
$var wire 1 / clr_n~input_o $end
$var wire 1 0 h~0_combout $end
$var wire 1 1 en~input_o $end
$var wire 1 2 h[0]~1_combout $end
$var wire 1 3 h~2_combout $end
$var wire 1 4 h [1] $end
$var wire 1 5 h [0] $end
$upscope $end
$upscope $end
$enddefinitions $end
#0
$dumpvars
0!
1"
0#
0%
0$
0&
1'
x(
1)
1*
1+
0,
0-
0.
1/
10
01
02
03
05
04
$end
#10000
1!
1.
#20000
0!
0.
#30000
1!
1.
#40000
0!
0.
#50000
1!
1.
#60000
0!
0.
#70000
1!
1.
#80000
0!
0.
#90000
1!
1.
#100000
0!
0.
#110000
1#
1!
11
1.
12
#120000
0!
0.
#130000
1!
1.
15
1,
1%
13
00
#140000
0!
0.
#150000
1!
1.
14
05
0,
1-
1$
0%
10
#160000
0!
0.
#170000
1!
1.
15
1,
1%
03
00
#180000
0!
0.
#190000
1!
1.
04
05
0,
0-
0$
0%
10
#200000
0!
0.
#210000
1!
1.
15
1,
1%
13
00
#220000
0!
0.
#230000
1!
1.
14
05
0,
1-
1$
0%
10
#240000
0!
0.
#250000
1!
1.
15
1,
1%
03
00
#260000
0!
0.
#270000
1!
1.
04
05
0,
0-
0$
0%
10
#280000
0!
0.
#290000
1!
1.
15
1,
1%
13
00
#300000
0!
0.
#310000
1!
1.
14
05
0,
1-
1$
0%
10
#320000
0!
0.
#330000
1!
1.
15
1,
1%
03
00
#340000
0!
0.
#350000
1!
1.
04
05
0,
0-
0$
0%
10
#360000
0!
0.
#370000
1!
1.
15
1,
1%
13
00
#380000
0!
0.
#390000
1!
1.
14
05
0,
1-
1$
0%
10
#400000
0!
0.
#410000
1!
1.
15
1,
1%
03
00
#420000
0!
0.
#430000
1!
1.
04
05
0,
0-
0$
0%
10
#440000
0!
0.
#450000
1!
1.
15
1,
1%
13
00
#460000
0#
0!
01
0.
02
#470000
1!
1.
#480000
0!
0.
#490000
1!
1.
#500000
0!
0.
#510000
1!
1.
#520000
0!
0.
#530000
1!
1.
#540000
0!
0.
#550000
1!
1.
#560000
0!
0.
#570000
1!
1.
#580000
0!
0.
#590000
1!
1.
#600000
0!
0.
#610000
1!
1.
#620000
0!
0.
#630000
1!
1.
#640000
0!
0.
#650000
1!
1.
#660000
0!
0.
#670000
1!
1.
#680000
0!
0.
#690000
1!
1.
#700000
0!
0.
#710000
1!
1.
#720000
0!
0.
#730000
1!
1.
#740000
0!
0.
#750000
1!
1.
#760000
0!
0.
#770000
1!
1.
#780000
0!
0.
#790000
1!
1.
#800000
0!
0.
#810000
1!
1.
#820000
0!
0.
#830000
1!
1.
#840000
0!
0.
#850000
1!
1.
#860000
0!
0.
#870000
1!
1.
#880000
0!
0.
#890000
1!
1.
#900000
0!
0.
#910000
1!
1.
#920000
0!
0.
#930000
1!
1.
#940000
0!
0.
#950000
1!
1.
#960000
0!
0.
#970000
1!
1.
#980000
0!
0.
#990000
1!
1.
