DLP/Atividade 1 - Henrique Silva Coutinho/simulation/qsim/Atv1Henrique.msim.vcd
$comment
	File created using the following command:
		vcd file Atv1Henrique.msim.vcd -direction
$end
$date
	Fri Nov 26 12:51:37 2021
$end
$version
	ModelSim Version 10.5b
$end
$timescale
	1ps
$end

$scope module atv1_vlg_vec_tst $end
$var reg 4 ! A [3:0] $end
$var reg 4 " B [3:0] $end
$var reg 2 # op [1:0] $end
$var wire 1 $ S [3] $end
$var wire 1 % S [2] $end
$var wire 1 & S [1] $end
$var wire 1 ' S [0] $end

$scope module i1 $end
$var wire 1 ( gnd $end
$var wire 1 ) vcc $end
$var wire 1 * unknown $end
$var tri1 1 + devclrn $end
$var tri1 1 , devpor $end
$var tri1 1 - devoe $end
$var wire 1 . S[0]~output_o $end
$var wire 1 / S[1]~output_o $end
$var wire 1 0 S[2]~output_o $end
$var wire 1 1 S[3]~output_o $end
$var wire 1 2 op[1]~input_o $end
$var wire 1 3 op[0]~input_o $end
$var wire 1 4 A[0]~input_o $end
$var wire 1 5 B[0]~input_o $end
$var wire 1 6 seletor|Mux3~0_combout $end
$var wire 1 7 B[1]~input_o $end
$var wire 1 8 A[1]~input_o $end
$var wire 1 9 soma|FA0|u4~0_combout $end
$var wire 1 : seletor|Mux2~0_combout $end
$var wire 1 ; seletor|Mux2~1_combout $end
$var wire 1 < B[2]~input_o $end
$var wire 1 = A[2]~input_o $end
$var wire 1 > soma|FA1|u4~0_combout $end
$var wire 1 ? seletor|Mux1~0_combout $end
$var wire 1 @ seletor|Mux1~1_combout $end
$var wire 1 A A[3]~input_o $end
$var wire 1 B B[3]~input_o $end
$var wire 1 C seletor|Mux0~0_combout $end
$var wire 1 D seletor|Mux0~1_combout $end
$var wire 1 E seletor|Mux0~2_combout $end
$upscope $end
$upscope $end
$enddefinitions $end
#0
$dumpvars
b110 !
b0 "
b0 #
0'
1&
1%
0$
0(
1)
x*
1+
1,
1-
0.
1/
10
01
02
03
04
05
06
07
18
09
1:
1;
0<
1=
0>
1?
1@
0A
0B
0C
0D
0E
$end
#40000
b1 #
13
1C
1>
19
1E
0@
0;
0/
00
11
1D
0?
0:
1$
0%
0&
0E
1@
1;
1/
10
01
0$
1%
1&
#80000
b11 #
b10 #
03
12
09
0D
1?
1:
0@
0;
0/
00
0>
0%
0&
0C
#120000
b11 #
13
1C
1>
19
1@
1;
1/
10
1%
1&
#160000
b1110 !
b1010 !
b1000 !
b1000 "
b1100 "
b1101 "
b1 #
b0 #
03
02
15
1<
1B
08
0=
1A
0>
09
1E
0@
16
1.
00
11
0C
0?
0:
1$
0%
1'
1D
1@
0;
0/
10
1%
0&
0E
01
0$
#200000
b1 #
13
1E
0@
1;
1/
00
11
1$
0%
1&
#240000
b11 #
b10 #
03
12
0;
06
0.
0/
0&
0'
#280000
b11 #
13
1@
16
1.
10
1%
1'
#320000
b1001 !
b1 !
b101 !
b1100 "
b1 #
b0 #
03
02
05
14
1=
0A
1C
1?
0D
0@
00
0%
0E
01
0$
#360000
b1 #
13
0C
19
1E
1@
1;
1/
10
11
1D
1>
1:
1$
1%
1&
1C
0?
0E
0;
0/
01
0D
0$
0&
0@
00
0%
1E
11
1$
#400000
b11 #
b10 #
03
12
0>
09
1D
1?
0:
0E
06
0.
01
0$
0'
1@
10
1%
#440000
b11 #
13
0C
19
1E
16
1.
11
1>
1$
1'
1C
#480000
b1110 "
b111 !
b110 !
b1110 !
b1010 !
b1111 "
b1 #
b0 #
03
02
04
18
0=
1A
15
17
09
0D
0E
0@
1;
1/
00
01
1:
0$
0%
1&
1E
11
1$
0;
0/
0&
#520000
b1 #
13
0C
0>
0E
1@
1;
1/
10
01
1D
0?
0$
1%
1&
1E
0@
00
11
1$
0%
#560000
b11 #
b10 #
03
12
1>
06
0.
1C
0'
#600000
b11 #
13
0C
0>
1@
16
1.
10
1%
1'
#640000
b111 "
b101 "
b1000 !
b1001 !
b100 "
b1 #
b0 #
03
02
14
08
05
07
0B
0D
0:
0E
01
0$
1E
0;
0/
11
1$
0&
#680000
b1 #
13
19
0E
0@
1;
1/
00
01
1>
1:
0$
0%
1&
1?
0;
0/
0&
1@
10
1%
#720000
b11 #
b10 #
03
12
1C
0>
09
0?
0:
06
0.
0C
0'
0@
00
0%
#760000
b11 #
13
19
1E
1@
16
1.
10
11
1>
1$
1%
1'
#800000
b1100 "
b1110 "
b1011 !
b1 #
b0 #
03
02
18
17
1B
1C
09
1D
1?
1;
1/
0D
1:
1&
0E
0@
00
01
0$
0%
1E
0;
0/
11
1$
0&
#840000
b1 #
13
0C
0>
19
0E
1@
1;
1/
10
01
1D
0?
1>
0:
0$
1%
1&
1?
1E
0@
0;
0/
00
11
1$
0%
0&
1@
10
1%
#880000
b11 #
b10 #
03
12
1C
09
0?
1:
06
0.
0'
0@
1;
1/
00
0%
1&
#920000
b11 #
13
0C
0>
19
1@
16
1.
10
1>
1%
1'
#960000
b1010 "
b1111 !
b1011 "
b11 "
b1 "
b1101 !
b1 #
b0 #
03
02
08
1=
15
07
0<
0B
1C
0>
0D
0E
0@
06
0.
00
01
1D
0C
1?
0$
0%
0'
1E
11
0D
1$
0E
1@
10
01
0$
1%
1E
11
1$
